{
   "type": "mysql",
   "host": "localhost",
   "port": 3306,
   "username": "root",
   "password": "root",
   "database": "reviewdb",
   "synchronize": false,
   "logging": false,
   "entities": [
      "src/data/entities/**/*.ts"
   ],
   "migrations": [
      "src/data/migration/**/*.ts"
   ],
   "cli": {
      "entitiesDir": "src/data/entities",
      "migrationsDir": "src/data/migration"
   }
}